<svg width="40" height="18" viewBox="0 0 40 18" fill="none" xmlns="http://www.w3.org/2000/svg">
<rect x="0.000732422" y="7" width="25" height="4" fill="white"/>
<path d="M40.0007 9L25.0007 0V18L40.0007 9Z" fill="white"/>
</svg>
