<svg width="10" height="10" viewBox="0 0 10 10" fill="none" xmlns="http://www.w3.org/2000/svg">
<g clip-path="url(#clip0)">
<path d="M5.49976 4.99874L9.95252 0.274989C10.0155 0.212018 10.0155 0.109941 9.95252 0.0469694C9.88955 -0.015982 9.78747 -0.015982 9.7245 0.0469694L4.99976 4.5L0.277004 0.0469694C0.212944 -0.0148935 0.110867 -0.0131196 0.0489843 0.0509404C-0.0113668 0.113428 -0.0113668 0.212501 0.0489843 0.274989L4.49976 5L0.0489843 9.72249C-0.0150757 9.78437 -0.0168495 9.88645 0.0450335 9.95051C0.106916 10.0146 0.208993 10.0163 0.273053 9.95446L0.277004 9.95051L4.99976 5.5L9.7245 9.95051C9.78856 10.0124 9.89064 10.0106 9.95252 9.94656C10.0129 9.88407 10.0129 9.78497 9.95252 9.72249L5.49976 4.99874Z" fill="black"/>
</g>
<defs>
<clipPath id="clip0">
<rect width="10" height="10" fill="white"/>
</clipPath>
</defs>
</svg>
